 [
    {"id":1001,"firstname":"Luke","Lastname":"Skywalker","company":"Walt Disney","salary":40000},
    {"id":1002,"firstname":"Tony","Lastname":"Stark","company":"Marvel","salary":1000000},
    {"id":1003,"firstname":"Somchai","Lastname":"Jaidee","company":"Love2work","salary":20000},
    {"id":1004,"firstname":"Monkey D","Lastname":"Luffee","company":"One Piece","salary":9000000}
]   
